<?xml version="1.0" encoding="UTF-8" standalone="no"?>
<?xml-stylesheet href="../../styles/forest.css" type="text/css"?>
<!DOCTYPE svg PUBLIC "-//W3C//DTD SVG 1.1//EN"
 "http://www.w3.org/Graphics/SVG/1.1/DTD/svg11.dtd">
<!-- Generated by graphviz version 2.40.1 (20161225.0304)
 -->
<!-- Title: %3 Pages: 1 -->
<svg width="210pt" height="415pt"
 viewBox="0.00 0.00 209.99 415.00" xmlns="http://www.w3.org/2000/svg" xmlns:xlink="http://www.w3.org/1999/xlink">
<g id="graph0" class="graph" transform="scale(1 1) rotate(0) translate(4 411)">
<title>%3</title>
<polygon fill="#ffffff" stroke="transparent" points="-4,4 -4,-411 205.9942,-411 205.9942,4 -4,4"/>
<!-- A -->
<g id="node1" class="node">
<title>A</title>
<ellipse fill="none" stroke="#000000" cx="114.9942" cy="-389" rx="50.0912" ry="18"/>
<text text-anchor="middle" x="114.9942" y="-385.3" font-family="Helvetica,sans-Serif" font-size="14.00" fill="#000000">Pop a box</text>
</g>
<!-- B -->
<g id="node2" class="node">
<title>B</title>
<ellipse fill="none" stroke="#000000" cx="64.9942" cy="-316" rx="64.9885" ry="18"/>
<text text-anchor="middle" x="64.9942" y="-312.3" font-family="Helvetica,sans-Serif" font-size="14.00" fill="#000000">Lay it in a row</text>
</g>
<!-- A&#45;&gt;B -->
<g id="edge1" class="edge">
<title>A&#45;&gt;B</title>
<path fill="none" stroke="#000000" d="M102.8906,-371.3287C96.9161,-362.606 89.5884,-351.9075 82.9742,-342.2507"/>
<polygon fill="#000000" stroke="#000000" points="85.6982,-340.034 77.1597,-333.7615 79.923,-343.9897 85.6982,-340.034"/>
</g>
<!-- C -->
<g id="node3" class="node">
<title>C</title>
<polygon fill="none" stroke="#000000" points="114.9942,-261 27.9942,-174 114.9942,-87 201.9942,-174 114.9942,-261"/>
<text text-anchor="middle" x="114.9942" y="-177.8" font-family="Helvetica,sans-Serif" font-size="14.00" fill="#000000">Overfull &amp; </text>
<text text-anchor="middle" x="114.9942" y="-162.8" font-family="Helvetica,sans-Serif" font-size="14.00" fill="#000000"> breakable?</text>
</g>
<!-- B&#45;&gt;C -->
<g id="edge2" class="edge">
<title>B&#45;&gt;C</title>
<path fill="none" stroke="#000000" d="M71.3268,-298.0156C75.8902,-285.0555 82.3816,-266.6198 88.9682,-247.914"/>
<polygon fill="#000000" stroke="#000000" points="92.2859,-249.0298 92.3059,-238.435 85.6832,-246.7049 92.2859,-249.0298"/>
</g>
<!-- C&#45;&gt;A -->
<g id="edge4" class="edge">
<title>C&#45;&gt;A</title>
<path fill="none" stroke="#000000" d="M135.5843,-240.8596C141.73,-269.6525 145.3346,-303.6167 138.9942,-334 137.015,-343.4845 133.3064,-353.3365 129.3862,-362.0372"/>
<polygon fill="#000000" stroke="#000000" points="126.1172,-360.76 124.9511,-371.2905 132.4296,-363.7856 126.1172,-360.76"/>
<text text-anchor="middle" x="151.9942" y="-312.3" font-family="Helvetica,sans-Serif" font-size="14.00" fill="#000000">No</text>
</g>
<!-- D -->
<g id="node4" class="node">
<title>D</title>
<ellipse fill="none" stroke="#000000" cx="114.9942" cy="-18" rx="64.189" ry="18"/>
<text text-anchor="middle" x="114.9942" y="-14.3" font-family="Helvetica,sans-Serif" font-size="14.00" fill="#000000">Break the line</text>
</g>
<!-- C&#45;&gt;D -->
<g id="edge3" class="edge">
<title>C&#45;&gt;D</title>
<path fill="none" stroke="#000000" d="M114.9942,-86.878C114.9942,-72.2805 114.9942,-58.1151 114.9942,-46.4648"/>
<polygon fill="#000000" stroke="#000000" points="118.4943,-46.1335 114.9942,-36.1335 111.4943,-46.1336 118.4943,-46.1335"/>
<text text-anchor="middle" x="126.9942" y="-57.8" font-family="Helvetica,sans-Serif" font-size="14.00" fill="#000000">Yes</text>
</g>
</g>
</svg>
